AMG Group
10
RLUBUBLYBBRRLBYURLBULULLRURBBYBBYLLYRYLRULURULBBYURYBUYYLBYBYRURRYLRYUBRYYUYUBUR

F
YYRB
RBLU
LUUR
LLRL
BLYU
1
2
ABC
0
.....
.....
.....
.....
.....
.
..
...
....
.....

DEF
0
.....
.....
.....
.....
.....
.
..
...
....
.....

